 can</name>
    <Style id="flight">
      <LineStyle>
        <color>7f00ffff</color>
        <width>4</width>
      </LineStyle>
      <PolyStyle>
        <color>7f00ff00</color>
      </PolyStyle>
    </Style>
	<Style id="before">
      <LineStyle>
        <color>7fff0000</color>
        <width>4</width>
      </LineStyle>
      <PolyStyle>
        <color>7f00ff00</color>
      </PolyStyle>
    </Style>
	<Style id="after">
		<LineStyle>
        <color>7f0000ff</color>
        <width>4</width>
      </LineStyle>
      <PolyStyle>
        <color>7f00ff00</color>
      </PolyStyle>
    </Style>
    <Placemark>
      <styleUrl>#before</styleUrl>
      <LineString>
        <extrude>1</extrude>
        <tessellate>1</tessellate>
		<altitudeMode>clampToGround</altitudeMode>
        <coordinates>
